^C:\USERS\ΝΙΚΌΛΑς ΣΤΡΑΤΉΓΑς\DESKTOP\BINARYSEARCHTREE-MASTER\BINARYSEARCHTREE\BINARYSEARCHTREE\MAIN.CPP
/c /I"C:\VCPKG\INSTALLED\X64-WINDOWS\INCLUDE" /ZI /JMC /nologo /W3 /WX- /diagnostics:column /sdl /Od /D _DEBUG /D _CONSOLE /D _UNICODE /D UNICODE /Gm- /EHsc /RTC1 /MDd /GS /fp:precise /permissive- /Zc:wchar_t /Zc:forScope /Zc:inline /Fo"X64\DEBUG\\" /Fd"X64\DEBUG\VC142.PDB" /Gd /TP /FC C:\USERS\ΝΙΚΌΛΑς ΣΤΡΑΤΉΓΑς\DESKTOP\BINARYSEARCHTREE-MASTER\BINARYSEARCHTREE\BINARYSEARCHTREE\MAIN.CPP
^C:\USERS\ΝΙΚΌΛΑς ΣΤΡΑΤΉΓΑς\DESKTOP\BINARYSEARCHTREE\BINARYSEARCHTREE\MAIN.CPP
/c /I"C:\VCPKG\INSTALLED\X64-WINDOWS\INCLUDE" /ZI /JMC /nologo /W3 /WX- /diagnostics:column /sdl /Od /D _DEBUG /D _CONSOLE /D _UNICODE /D UNICODE /Gm- /EHsc /RTC1 /MDd /GS /fp:precise /permissive- /Zc:wchar_t /Zc:forScope /Zc:inline /Fo"X64\DEBUG\\" /Fd"X64\DEBUG\VC142.PDB" /Gd /TP /FC C:\USERS\ΝΙΚΌΛΑς ΣΤΡΑΤΉΓΑς\DESKTOP\BINARYSEARCHTREE\BINARYSEARCHTREE\MAIN.CPP
